{
  "end time": "2017-07-19 13:00:00+0800",
  "folder": "day",
  "name": "day1",
  "start time": "2017-07-19 08:00:00+0800",
  "subdir": [
    "integer",
    "queue",
    "pool"
  ],
  "title": {
    "zh-cn": "\u7b2c\u4e00\u8bd5"
  },
  "version": 0
}