[
	["测试点编号",	"$n$",			"$d$",		"$m$",			"其他性质"],
	["1",			"\\le 2", 			"0", 		"\\le 4", 		"无"],
	["2",			null, 			"\\le n", 	null, 			null],
	["3",			"\\le 5", 			"0", 		"\\le 10", 		null],
	["4",			null, 			"\\le n", 	null, 			null],
	["5",			"\\le 10", 		"0", 		"\\le 20", 		null],
	["6",			null,	 		"\\le 8", 	null, 			null],
	["7",			"\\le 20", 		"0", 		"\\le 40", 		"S中只包含c"],
	["8",			null, 			null, 		null, 			"无"],
	["9",			null, 			"\\le 8",	null, 			"S中只包含x或c"],
	["10",			null, 			null,	 	null, 			"无"],
	["11",			"\\le 100", 	"0", 		"\\le 200", 	"S中只包含c"],
	["12",			null, 			null, 		null,		 	"无"],
	["13",			null, 			"\\le 8", 	null,		 	"S中只包含x或c"],
	["14",			null, 			null,	 	null,		 	"无"],
	["15",			"\\le 5000", 	"0", 		"\\le 10000", 	null],
	["16",			null,		 	"\\le 8", 	null,		 	"S中只包含x或c"],
	["17",			null,		 	null,	 	null,		 	"无"],
	["18",			"\\le 50000", 	"0", 		"\\le 100000", 	null],
	["19",			null, 			"\\le 8", 	null,	 		"S中只包含x或c"],
	["20",			null, 			null,	 	null,		 	"无"]
]
