[
	["测试点编号", "$n \\le$", "$m \\le$", "$k$"],
	["1", "10", "10", "$\\leq n - 3$"],
	["2", "1000", "1000", null],
	["3", null, null, null],
	["4", null, null, null],
	["5", "100000", "100000", "=1"],
	["6", null, null, null],
	["7", null, null, null],
	["8", null, null, null],
	["9", null, null, "=2"],
	["10", null, null, null],
	["11", null, null, "$\\leq 3$"],
	["12", null, null, "$\\leq 5$"],
	["13", null, null, "$\\leq 9$"],
	["14", null, null, "$\\leq 12$"],
	["15", null, null, "$\\leq 20$"],
	["16", null, null, "$\\leq 100$"],
	["17", null, null, null],
	["18", null, null, null],
	["19", null, null, null],
	["20", null, null, null]
]
