{
  "args": {
    "n": 1000
  },
  "compile": {
    "c": "-lm",
    "cpp": "-lm",
    "pas": ""
  },
  "data": [
    {
      "cases": [
        "game1",
        "game2",
        "game3",
        "game4",
        "game5",
        "game6",
        "game7",
        "game8",
        "game9",
        "game10",
        "game11",
        "game12",
        "game13",
        "game14",
        "game15",
        "game16",
        "game17",
        "game18",
        "game19",
        "game20"
      ]
    }
  ],
  "folder": "problem",
  "memory limit": "512 MB",
  "name": "game",
  "packed": false,
  "partial score": false,
  "samples": [
    {
      "cases": [
        1,
        2
      ]
    }
  ],
  "time limit": 1.0,
  "title": {
    "zh-cn": "\u6e38\u620f"
  },
  "type": "program",
  "users": {
    "code": {
      "enumerate_A.cpp": "code//enumerate_A.cpp",
      "enumerate_B.cpp": "code//enumerate_B.cpp",
      "non_tarjan.cpp": "code//non_tarjan.cpp",
      "non_tarjan_CtoA.cpp": "code//non_tarjan_CtoA.cpp",
      "non_tarjan_random.cpp": "code//non_tarjan_random.cpp",
      "search_A.cpp": "code//search_A.cpp",
      "strongest.cpp": "code//strongest.cpp",
      "tarjan.cpp": "code//tarjan.cpp"
    }
  },
  "version": 0
}